{
    "items":[
        {
            "nombre-y-apellido":"Mateo Rafael Martinez",
            "index":1,
            "nro-documento":"12345601",
            "nro-cliente":"45678901"
        },
        {
            "nombre-y-apellido":"Romina Labiste",
            "index":2,
            "nro-documento":"12345602",
            "nro-cliente":"45678902"
        },
        {
            "nombre-y-apellido":"Carlos Martinez",
            "index":3,
            "nro-documento":"12345603",
            "nro-cliente":"45678903"
        }

    ]
}